{
    "modbusTcpSettings": {
        "modbusType": "tcp",
        "modbusServerIp": "192.168.0.101",
        "modbusServerPort": 5059
    },
    "awsSettings": {
        "awsMqttEndpoint": "a3rh361ag55y5n-ats.iot.us-east-2.amazonaws.com",
        "awsMqttPort": 8883,
        "awsMqttCertDir": "../certs/",
        "awsMqttRootCert": "AmazonRootCA1.pem",
        "awsMqttClientCert": "c0109d3db9-certificate.pem.crt",
        "awsMqttPrivKey": "c0109d3db9-private.pem.key",
        "awsMqttClientId": "rpi-test-23"
    },
    "azure": {
        "azureIotHubName": "test-rtu",
        "azureIotPort": 8883,
        "azureIotDeviceId": "rpi",
        "azureIotSASToken": "SharedAccessSignature sr=test-rtu.azure-devices.net%2Fdevices%2Frpi&sig=xdjHBKXId59oBeEdUXj0UPmunu0yfdPcH1Atb23%2FU4Q%3D&se=1599563270",
        "azureIotRootCA": "../certs/IoTHubRootCA_Baltimore.pem"
    },
    "mqttSettings": {
        "mqttBrokerUrl": "test.mosquitto.org:1883",
        "mqttClientId": "shunya pi3"
    },
    "database": {
        "influxdbUrl": "http://releases.shunyaos.org:8086",
        "influxdbDBName": "shunya_test"
    },
    "twilio": {
        "twilioAccountSid": "xxxxxxxxxxxxxx",
        "twilioAuthToken": "xxxxxxxxxxxxxxx"
    },
    "video-source": {
        "videoPath": "20210405_190211.mp4"
    },
    "videoStore": {
        "storeType": "video",
        "storePath": "/home/shunya/Desktop",
        "videoFps": 10 
    }
}
